http://218.17.46.17:808
http://183.32.252.173:8118
http://222.95.144.192:3000
http://117.88.176.55:3000
http://110.87.176.121:8118
http://117.87.230.117:8118
http://117.88.177.150:3000
http://115.213.161.112:50003
http://121.237.148.115:3000
http://121.237.149.52:3000
http://121.237.148.72:3000
http://101.231.104.82:80
http://119.123.77.113:8118
http://183.5.99.10:8118
http://218.14.108.53:8060
http://121.33.220.158:808
http://115.219.175.1:8118
